{
  "about": {
    "datasetID": "object_dataset_1",
    "datasetName": "Images with some fake objects",
    "license": "CC0",
    "datasetSchemaVersion": "3.2.0",
    "redacted": false,
    "datasetVersion": "1.0",
    "digest": "221139df968caa2619a0cdbb62a8b9d93568524d2b5069babbca54cf97a2efa1"
  },
  "dataResources": [
    {
      "resID": "0",
      "resPath": "media/",
      "resType": "image",
      "resFormat": [
        "image/png"
      ],
      "isCollection": true
    },
    {
      "resID": "learningData",
      "resPath": "tables/learningData.csv",
      "resType": "table",
      "resFormat": [
        "text/csv"
      ],
      "isCollection": false,
      "columns": [
        {
          "colIndex": 0,
          "colName": "d3mIndex",
          "colType": "integer",
          "role": [
            "index"
          ]
        },
        {
          "colIndex": 1,
          "colName": "image",
          "colType": "string",
          "role": [
            "index"
          ],
          "refersTo": {
            "resID": "0",
            "resObject": "item"
          }
        },
        {
          "colIndex": 2,
          "colName": "bounding_box",
          "colType": "realVector",
          "role": [
            "suggestedTarget",
            "boundaryIndicator",
            "boundingBox"
          ],
          "refersTo": {
            "resID": "learningData",
            "resObject": {
              "columnName": "image"
            }
          }
        }
      ]
    }
  ]
}