{
  "about": {
    "datasetID": "audio_dataset_1",
    "datasetName": "Audio dataset to be used for tests",
    "license": "CC0",
    "datasetSchemaVersion": "3.2.0",
    "redacted": false,
    "datasetVersion": "1.0",
    "digest": "2e1ca903305f0e71f8b6ab5f81d942e0335e6fe5ae901b311b1bcd1aed9a5fe1"
  },
  "dataResources": [
    {
      "resID": "0",
      "resPath": "media/",
      "resType": "audio",
      "resFormat": [
        "audio/mpeg"
      ],
      "isCollection": true
    },
    {
      "resID": "learningData",
      "resPath": "tables/learningData.csv",
      "resType": "table",
      "resFormat": [
        "text/csv"
      ],
      "isCollection": false,
      "columns": [
        {
          "colIndex": 0,
          "colName": "d3mIndex",
          "colType": "integer",
          "role": [
            "index"
          ]
        },
        {
          "colIndex": 1,
          "colName": "audio_file",
          "colType": "string",
          "role": [
            "attribute"
          ],
          "refersTo": {
            "resID": "0",
            "resObject": "item"
          }
        },
        {
          "colIndex": 2,
          "colName": "start",
          "colType": "real",
          "role": [
            "boundaryIndicator"
          ]
        },
        {
          "colIndex": 3,
          "colName": "end",
          "colType": "real",
          "role": [
            "boundaryIndicator"
          ]
        },
        {
          "colIndex": 4,
          "colName": "class",
          "colType": "categorical",
          "role": [
            "suggestedTarget"
          ]
        }
      ]
    }
  ]
}